{
  "count": 17785,
  "next": "http://api.pitchfork.com/api/v1/albumreviews/?limit=2&offset=2",
  "previous": null,
  "results": [
    {
      "id": 22072,
      "url": "/reviews/albums/22072-aphex-twin-cheetah/",
      "timestamp": 1467867600000,
      "genres": [
        {
          "display_name": "Electronic",
          "slug": "electronic"
        }
      ],
      "tombstone": {
        "bnm": false,
        "bnr": false,
        "albums": [
          {
            "album": {
              "artists": [
                {
                  "id": 110,
                  "display_name": "Aphex Twin",
                  "url": "/artists/110-aphex-twin/",
                  "image": {
                    "m": "http://cdn4.pitchfork.com/artists/110/m.f67010b7.jpg",
                    "sm": "http://cdn4.pitchfork.com/artists/110/sm.f67010b7.jpg"
                  }
                }
              ],
              "amoeba_url": "",
              "display_name": "Cheetah",
              "artwork": {
                "default": "http://cdn.pitchfork.com/albums/23420/9ca0bba0.jpg",
                "list": "http://cdn3.pitchfork.com/albums/23420/list.9ca0bba0.jpg",
                "homepage_small": "http://cdn3.pitchfork.com/albums/23420/homepage_small.9ca0bba0.jpg",
                "homepage_large": "http://cdn2.pitchfork.com/albums/23420/homepage_large.9ca0bba0.jpg"
              },
              "labels": [
                {
                  "id": 136,
                  "name": "Warp",
                  "display_name": "Warp"
                }
              ]
            },
            "rating": {
              "display_rating": "8.2",
              "rating": "8.2",
              "bnm": false,
              "bnr": false
            },
            "labels_and_years": [
              {
                "labels": [
                  {
                    "id": 136,
                    "name": "Warp",
                    "display_name": "Warp"
                  }
                ],
                "year": 2016
              }
            ]
          }
        ]
      },
      "title": "Cheetah",
      "artists": [
        {
          "id": 110,
          "display_name": "Aphex Twin",
          "url": "/artists/110-aphex-twin/",
          "image": {
            "m": "http://cdn4.pitchfork.com/artists/110/m.f67010b7.jpg",
            "sm": "http://cdn4.pitchfork.com/artists/110/sm.f67010b7.jpg"
          }
        }
      ],
      "authors": [
        {
          "url": "/staff/philip-sherburne/",
          "name": "Philip Sherburne",
          "title": "Contributing Editor"
        }
      ],
      "abstract": "<p>The newest Aphex Twin since Richard D. James returned from his extended hiatus shows a simpler side of his music, with slower tempos and spine-tinglingly rich tunes and timbres. </p>",
      "ordering": 0
    },
    {
      "id": 22074,
      "url": "/reviews/albums/22074-paradise-gallows/",
      "timestamp": 1467867600000,
      "genres": [],
      "tombstone": {
        "bnm": false,
        "bnr": false,
        "albums": [
          {
            "album": {
              "artists": [
                {
                  "id": 30991,
                  "display_name": "Inter Arma",
                  "url": "/artists/30991-inter-arma/",
                  "image": null
                }
              ],
              "amoeba_url": "",
              "display_name": "Paradise Gallows",
              "artwork": {
                "default": "http://cdn2.pitchfork.com/albums/23422/473750b7.jpg",
                "list": "http://cdn3.pitchfork.com/albums/23422/list.473750b7.jpg",
                "homepage_small": "http://cdn2.pitchfork.com/albums/23422/homepage_small.473750b7.jpg",
                "homepage_large": "http://cdn3.pitchfork.com/albums/23422/homepage_large.473750b7.jpg"
              },
              "labels": [
                {
                  "id": 270,
                  "name": "Relapse",
                  "display_name": "Relapse"
                }
              ]
            },
            "rating": {
              "display_rating": "8.0",
              "rating": "8.0",
              "bnm": false,
              "bnr": false
            },
            "labels_and_years": [
              {
                "labels": [
                  {
                    "id": 270,
                    "name": "Relapse",
                    "display_name": "Relapse"
                  }
                ],
                "year": 2016
              }
            ]
          }
        ]
      },
      "title": "Paradise Gallows",
      "artists": [
        {
          "id": 30991,
          "display_name": "Inter Arma",
          "url": "/artists/30991-inter-arma/",
          "image": null
        }
      ],
      "authors": [
        {
          "url": "/staff/sam-sodomsky/",
          "name": "Sam Sodomsky",
          "title": "Contributor"
        }
      ],
      "abstract": "<p><i><span style=\"font-weight: 400;\">Paradise Gallows</span></i><span style=\"font-weight: 400;\"> finds the Richmond, Virginia five-piece alternatively aiming to be both the world’s heaviest act and also the prettiest. </span></p>",
      "ordering": 1
    }
  ]
}
